…
The data set `deprived` from Utts and Heckard is from a survey of
students from a statistics class. Each student was asked whether they
generally felt sleep-deprived or not, and also how many hours they
usually slept per night:

``` r
my_url <- "utts-heckard/deprived.XLS"
deprived <- read.xls(my_url)
deprived %>% as_tibble()
#> # A tibble: 86 x 2
#>    Deprived SleepHrs
#>    <fct>       <int>
#>  1 No              8
#>  2 No              6
#>  3 No              7
#>  4 Yes             6
#>  5 Yes             6
#>  6 Yes             7
#>  7 Yes             6
#>  8 Yes             7
#>  9 No              9
#> 10 No              7
#> # … with 76 more rows
```
…
